<?xml version="1.0" encoding="utf-8"?>
<!-- Generator: Adobe Illustrator 22.1.0, SVG Export Plug-In . SVG Version: 6.00 Build 0)  -->
<svg version="1.1" id="Layer_1" xmlns="http://www.w3.org/2000/svg" xmlns:xlink="http://www.w3.org/1999/xlink" x="0px" y="0px"
	 viewBox="0 0 2416.5 483.8" style="enable-background:new 0 0 2416.5 483.8;" xml:space="preserve">
<style type="text/css">
	.st0{fill:#FF4B55;}
	.st1{fill:#73AF00;}
	.st2{fill:#F5F5F5;}
</style>
<g>
	<path class="st0" d="M1366,57c0-15.7,5.6-29.2,16.7-40.3C1393.9,5.6,1407.3,0,1423,0s29.2,5.6,40.3,16.7
		c11.1,11.1,16.7,24.6,16.7,40.3s-5.6,29.2-16.7,40.3c-11.1,11.1-24.6,16.7-40.3,16.7s-29.2-5.6-40.3-16.7
		C1371.6,86.2,1366,72.8,1366,57z"/>
	<path class="st1" d="M311.4,420.8c-15.7,20.1-35.6,35.6-59.6,46.5c-24,10.9-48.9,16.4-74.7,16.4c-24.5,0-47.5-3.9-69.2-11.8
		c-21.6-7.9-40.4-19.1-56.4-33.8c-16-14.6-28.5-32.2-37.7-52.8C4.6,364.9,0,342,0,316.6c0-25.3,4.6-48.3,13.8-68.8
		c9.2-20.5,21.7-38.1,37.7-52.8c15.9-14.6,34.7-25.9,56.4-33.8c21.6-7.9,44.7-11.8,69.2-11.8c22.7,0,43.4,3.9,61.9,11.8
		c18.6,7.9,34.3,19.1,47.2,33.8c12.9,14.6,22.8,32.2,29.8,52.8c7,20.5,10.5,43.5,10.5,68.8v30.8H98.3c3.9,18.8,12.5,33.8,25.6,44.9
		c13.1,11.1,29.3,16.7,48.5,16.7c16.2,0,29.8-3.6,41-10.8c11.1-7.2,20.9-16.5,29.2-27.9L311.4,420.8z M228.1,280.5
		c0.4-16.6-5-30.8-16.4-42.6c-11.4-11.8-26-17.7-43.9-17.7c-10.9,0-20.5,1.8-28.8,5.2c-8.3,3.5-15.4,8-21.3,13.4
		c-5.9,5.5-10.5,11.8-13.8,19c-3.3,7.2-5.1,14.7-5.6,22.6H228.1z"/>
	<path class="st1" d="M663.4,475.9H569v-43.3h-1.3c-3.5,6.1-8,12.2-13.4,18.4c-5.5,6.1-12.1,11.6-20,16.4
		c-7.9,4.8-16.8,8.7-26.9,11.8c-10.1,3.1-21,4.6-32.8,4.6c-24.9,0-45.1-3.8-60.6-11.5c-15.5-7.6-27.5-18.2-36.1-31.8
		c-8.5-13.5-14.2-29.5-17-47.9c-2.8-18.4-4.3-38.2-4.3-59.7V157.3h98.3v156c0,9.2,0.3,18.7,1,28.5c0.7,9.8,2.6,18.9,5.9,27.2
		c3.3,8.3,8.3,15.1,15.1,20.3c6.8,5.2,16.5,7.9,29.2,7.9c12.7,0,22.9-2.3,30.8-6.9c7.9-4.6,13.9-10.7,18-18.4
		c4.1-7.6,6.9-16.3,8.2-25.9c1.3-9.6,2-19.7,2-30.2V157.3h98.3V475.9z"/>
	<path class="st0" d="M703.3,157.3h94.4v43.3h1.3c3.1-6.1,7.4-12.2,13.1-18.4c5.7-6.1,12.5-11.6,20.3-16.4
		c7.9-4.8,16.8-8.7,26.9-11.8c10-3.1,21-4.6,32.8-4.6c24.9,0,45,3.8,60.3,11.5c15.3,7.7,27.2,18.3,35.7,31.8
		c8.5,13.6,14.3,29.5,17.4,47.9c3.1,18.4,4.6,38.2,4.6,59.6v175.7h-98.3v-156c0-9.2-0.3-18.7-1-28.5c-0.7-9.8-2.6-18.9-5.9-27.2
		c-3.3-8.3-8.3-15.1-15.1-20.3c-6.8-5.2-16.5-7.9-29.2-7.9c-12.7,0-22.9,2.3-30.8,6.9s-13.9,10.7-18,18.4
		c-4.2,7.7-6.9,16.3-8.2,25.9c-1.3,9.6-2,19.7-2,30.2v158.6h-98.3V157.3z"/>
	<path class="st0" d="M1250,435.9h-1.3c-10.9,17-25.5,29.3-43.6,36.7c-18.1,7.4-37.3,11.1-57.4,11.1c-14.9,0-29.2-2.1-42.9-6.2
		s-25.9-10.4-36.4-18.7c-10.5-8.3-18.8-18.6-24.9-30.8c-6.1-12.2-9.2-26.4-9.2-42.6c0-18.4,3.4-33.9,10.2-46.5
		c6.8-12.7,15.9-23.2,27.5-31.5c11.6-8.3,24.8-14.7,39.7-19.3c14.9-4.6,30.3-8,46.2-10.2c15.9-2.2,31.9-3.5,47.9-3.9
		c15.9-0.4,30.7-0.7,44.2-0.7c0-17.5-6.2-31.4-18.7-41.6c-12.5-10.3-27.2-15.4-44.2-15.4c-16.2,0-30.9,3.4-44.2,10.2
		c-13.3,6.8-25.2,16.1-35.7,27.9l-52.4-53.8c18.4-17,39.8-29.8,64.2-38.3c24.5-8.5,49.8-12.8,76-12.8c28.8,0,52.5,3.6,71.1,10.8
		c18.6,7.2,33.4,17.8,44.6,31.8c11.1,14,18.9,31.1,23.3,51.5c4.4,20.3,6.6,43.8,6.6,70.5v161.9H1250V435.9z M1225.8,336.3
		c-7.4,0-16.7,0.3-27.9,1c-11.1,0.7-21.9,2.5-32.1,5.6c-10.3,3.1-19,7.7-26.2,13.8c-7.2,6.1-10.8,14.6-10.8,25.6
		c0,11.8,5,20.5,15.1,26.2c10,5.7,20.5,8.5,31.5,8.5c9.6,0,18.9-1.3,27.9-3.9c9-2.6,16.9-6.3,23.9-11.1c7-4.8,12.6-10.9,16.7-18.4
		c4.1-7.4,6.2-16.2,6.2-26.2v-21H1225.8z"/>
	<path class="st0" d="M1752.8,419.5c0-8.3,1.5-16.2,4.6-23.6c3.1-7.4,7.3-13.9,12.8-19.3c5.5-5.5,11.9-9.7,19.3-12.8
		c7.4-3.1,15.3-4.6,23.6-4.6c8.3,0,16.2,1.5,23.6,4.6c7.4,3.1,13.9,7.3,19.3,12.8c5.5,5.5,9.7,11.9,12.8,19.3
		c3.1,7.4,4.6,15.3,4.6,23.6c0,8.3-1.5,16.2-4.6,23.6c-3.1,7.4-7.3,13.9-12.8,19.3c-5.5,5.5-11.9,9.7-19.3,12.8
		c-7.4,3.1-15.3,4.6-23.6,4.6c-8.3,0-16.2-1.5-23.6-4.6c-7.4-3.1-13.9-7.3-19.3-12.8c-5.5-5.5-9.7-11.9-12.8-19.3
		C1754.3,435.7,1752.8,427.8,1752.8,419.5z"/>
	<path class="st1" d="M1730.5,236v-78.7h-86.5V62.9h-98.3v94.4h-73.4h-8.5h-89.8v318.6h98.3V236h73.4v151.4
		c0,17.5,2.9,32.3,8.8,44.6c5.9,12.2,14.1,22.2,24.6,29.8c10.5,7.7,22.7,13.2,36.7,16.7c14,3.5,29.3,5.2,45.9,5.2
		c11.4,0,22.9-0.7,34.7-2c11.8-1.3,23.2-3.9,34.1-7.9V392c-4.4,3.9-10.8,6.5-19.3,7.5c-8.5,1.1-15.4,1.6-20.6,1.6
		c-10.5,0-18.9-1.4-25.2-4.3c-6.3-2.8-11-6.9-14.1-12.1c-3.1-5.2-5-11.5-5.9-18.7c-0.9-7.2-1.3-15.2-1.3-23.9V236H1730.5z"/>
	<g>
		<path class="st1" d="M1942.8,144.9c-21.2,0-38.3,17.2-38.3,38.3V442c0,21.2,17.2,38.3,38.3,38.3h132.3V144.9H1942.8z"/>
		<rect x="2075.1" y="144.9" class="st2" width="170.7" height="335.5"/>
		<path class="st0" d="M2378.1,144.9h-132.3v335.4h132.3c21.2,0,38.3-17.2,38.3-38.3V183.3C2416.5,162.1,2399.3,144.9,2378.1,144.9z
			"/>
	</g>
</g>
</svg>
